[gd_scene load_steps=4 format=2]

[ext_resource path="res://enemies/hopper/hopper.png" type="Texture" id=1]
[ext_resource path="res://enemies/_shared/enemy.tscn" type="PackedScene" id=2]
[ext_resource path="res://enemies/hopper/hopper.gd" type="Script" id=3]

[node name="Area2D" instance=ExtResource( 2 )]
script = ExtResource( 3 )

[node name="base" parent="." index="1"]
texture = ExtResource( 1 )

[node name="tween" type="Tween" parent="." index="3"]
