[gd_scene load_steps=3 format=2]

[ext_resource path="res://gui/theme.tres" type="Theme" id=1]
[ext_resource path="res://towers/_shared/base.png" type="Texture" id=2]

[node name="buy_tower_button" type="Button"]
margin_right = 125.0
margin_bottom = 75.0
rect_min_size = Vector2( 125, 75 )
focus_mode = 0
enabled_focus_mode = 0
flat = true
__meta__ = {
"_edit_lock_": true,
"_edit_use_anchors_": false
}

[node name="base" type="Sprite" parent="."]
modulate = Color( 0.419608, 0.419608, 0.419608, 1 )
position = Vector2( 30, 30 )
scale = Vector2( 0.2, 0.2 )
texture = ExtResource( 2 )

[node name="symbol" type="Sprite" parent="base"]
scale = Vector2( 1.25, 1.25 )

[node name="name" type="Label" parent="."]
margin_left = 57.8452
margin_top = 7.03136
margin_right = 122.845
margin_bottom = 27.0314
theme = ExtResource( 1 )
uppercase = true
__meta__ = {
"_edit_use_anchors_": false
}

[node name="cost" type="Label" parent="."]
margin_left = 61.0874
margin_top = 28.926
margin_right = 101.087
margin_bottom = 48.926
theme = ExtResource( 1 )
valign = 2
__meta__ = {
"_edit_use_anchors_": false
}
