[gd_scene load_steps=6 format=2]

[ext_resource path="res://levels/_shared/level.tscn" type="PackedScene" id=1]
[ext_resource path="res://levels/level1.gd" type="Script" id=2]
[ext_resource path="res://levels/level1.jpg" type="Texture" id=3]

[sub_resource type="Gradient" id=1]
offsets = PoolRealArray( 0 )
colors = PoolColorArray( 1, 1, 1, 1 )

[sub_resource type="GradientTexture" id=2]
gradient = SubResource( 1 )
width = 1

[node name="level" instance=ExtResource( 1 )]
script = ExtResource( 2 )
money = 1080

[node name="navi" parent="." index="0"]
map_size = Vector2( 20, 14 )
offset = Vector2( 62, 84 )

[node name="light_2d" parent="." index="1"]
position = Vector2( 381.467, 308.067 )
scale = Vector2( 698.387, 509.184 )
texture = SubResource( 2 )

[node name="bg" parent="." index="4"]
position = Vector2( 326.87, 329.286 )
texture = ExtResource( 3 )

[node name="next_wave_timer" parent="waves" index="0"]
wait_time = 5.0

[node name="pause_button" parent="gui" index="0"]
margin_left = 861.823
margin_top = 28.0477
margin_right = 911.823
margin_bottom = 78.0477

[node name="next_wave_button" parent="gui" index="1"]
margin_left = 774.283
margin_top = 30.0999
margin_right = 824.283
margin_bottom = 80.0999

[node name="quit_button" parent="gui" index="2"]
visible = false
margin_left = 951.348
margin_top = 30.1473
margin_right = 1001.35
margin_bottom = 80.1473

[node name="health_counter" parent="gui" index="3"]
margin_left = 76.2433
margin_top = 17.9121
margin_right = 182.243
margin_bottom = 58.9121

[node name="wave_counter" parent="gui" index="4"]
margin_left = 440.126
margin_top = 20.1161
margin_right = 529.126
margin_bottom = 61.1161

[node name="money_counter" parent="gui" index="5"]
margin_left = 205.173
margin_top = 17.1357
margin_right = 338.173
margin_bottom = 58.1357

[node name="Path2D" parent="gui" index="6"]
visible = false

[editable path="gui"]
[editable path="gui/texture_rect/active_tower_container/sell_button"]
